:200000000813100814130913110914140A13120A14150B1C010C1C020D1C020E1C020F1CF2
:2000200003101929101C05111B04111C06121C07141923151923161923161C2B17192918E1
:2000400019231C1B241C1C261D1B251D1C271F13101F14132013112014142113112114144C
:20006000221312221415261A24261B26261C26271A25271B27271C27291C2B2D1B242D1C5D
:20008000262E1B252E1C27331D00331E00331F00341D00341E00341F00371C01381C02398F
:2000A0001C023A1C023B1C03401C2B441929451B2C451C2D4819294B1929551C28561B2800
:2000C000561C28571A28571B28571C28581928581A28581B28581C28591C025A1C025B19EB
:2000E000285B1A285B1B285B1C285C1A285C1B285C1C285D1B285D1C285E1C285F1C05605E
:200100001B05601C06611A04611B06611C06621B07621C06631C28641B28641C28651A2814
:20012000651B28651C28661928661A28661B28661C28671928671A28671B28671C28681DA1
:2001400000681E00681F00691D00691E00691F006A19286A1A286A1B286A1C286B19286B34
:200160001A286B1B286B1C286C1A286C1B286C1C286D1B286D1C286E1C28730E10730F139A
:20018000731B24731C26740E11740F14741B25741C27750E12750F157918237A18237B1839
:2001A000297C18237D0F107D10130000000000007E0F117E10140000000000007F0F117FC5
:2001C0001014800F12801015851B24851C26861B25861C27871C28881B28881C28891A286E
:2001E000891B28891C288A19288A1A288A1B288A1C288B18288B19288B1A288B1B288B1C5B
:20020000288C17288C18288C19288C1A288C1B288C1C288D16288D17288D18288D19288D26
:200220001A288D1B288D1C288E15288E16288E17288E18288E19288E1A288E1B288E1C2867
:200240008F15288F16288F17288F18288F19288F1A288F1B288F1C289614179713169714F6
:2002600018971519971619971719971819971919971A19971B19971C289913109914139AFD
:2002800013129A14159B1A099B1B0B9B1C0B9C18099C190A9C1A0E9C1B0B9C1C0B9D1809B2
:2002A0009D190B9D1A0E9D1B0C9D1C0D9E18099E190F9E1A0E9E1B0B9E1C0B9F1A099F1BDE
:1302C0000B9F1C0BA01C03A11C05A21B04A21C06A31C078E
:00000001FF
