00000010
00000000
00000110
00000010
00000111
11011101
01110101
11010000
00000000
01110101
10011111
00000000
01110101
10001111
00010000
01110101
10000001
01111000
00010010
00001100
10010010
11100100
11111111
11111110
00010010
00000000
00101010
00010010
00000000
00011111
00110010
10000000
11111110
00100010
00110000
00110000
00000010
00000110
11111000
00000010
00001011
01110111
00000010
00000011
00110011
11100101
00001111
00100010
00000000
00000000
00000000
00000000
10000110
00000101
00000010
00000100
10001011
00010010
00000000
11100100
00000010
00000100
00000111
00010010
00000001
10100100
00000010
00000100
01101001
00110000
00110000
00110000
00110000
00110000
00110000
11101111
00100100
00000011
11111000
11100110
00100010
00010010
00000001
01000101
10101000
01100011
11100110
00100010
00010010
00000001
10100100
11101101
00100100
00110000
00100010
10101111
01101011
01111110
00000000
00000010
00000010
00100111
11101111
00100100
00000011
11111000
10100110
00000101
00100010
11101111
00100100
00000100
11111000
10100110
00000101
00100010
11101111
00100100
00000111
11111000
10100110
00000101
00100010
11101111
00100100
00001000
11111000
10100110
00000101
00100010
11101111
00100100
00001010
11111000
10100110
00000101
00100010
11111111
10101000
00000001
00001000
00000010
00000000
00110100
01111110
11111111
01111111
11111111
00000010
00000010
10011001
10101000
01100100
00010010
00000000
00110100
00100100
11101000
00100010
10000101
01011110
11110000
10100100
00100100
00101110
11111001
00100010
11111010
10001011
00000111
10001010
00000110
00000010
00000010
00100111
00001111
10111111
00000000
00000001
00001110
00000010
00000010
00100111
00010010
00000001
01110011
10010000
00000000
00110000
00000010
00001010
00110110
11111111
10101000
01100100
00010010
00000000
00110100
00100100
11010101
00100010
01110100
00001100
10000101
00001011
11110000
10100100
00100100
00101110
00100010
00100101
10000010
11110101
10000010
01010000
00000010
00000101
10000011
00100010
01110110
00101011
11101100
00100100
00000100
11111000
01110110
00000001
00100010
01110101
10101000
10000001
01110101
10111000
00000001
01110101
10001000
00000001
00100010
10001111
00000000
10100110
00000101
00001111
10001111
00000000
10100110
00000011
00100010
10101111
01101000
10101110
01100111
00010010
00000010
00100111
11111001
01111000
00000000
00100010
01111010
00000000
11101011
00100101
00001100
11111011
11100100
00111010
11111010
11101001
00100010
10010000
00010000
00000100
01110100
00000001
11110000
01111110
00000000
01111111
00000101
00100010
11101111
00100101
10000010
11110101
10000010
11101110
00110101
10000011
11110101
10000011
00100010
00010010
00000001
00101111
10000110
00000110
00001000
10000110
00000111
00000010
00000110
01001000
00001000
11100110
00101111
11111111
11110110
00011000
11100110
00111110
11111110
11110110
00100010
11101001
00000100
11110101
11110000
10000111
00000111
10101000
11110000
10000110
00000101
00100010
11100101
00001111
00000100
11111000
01111110
00000000
01111111
01100100
00000010
00000001
00100100
10101000
01100100
00010010
00000000
00110100
11111000
01110100
00100010
11010011
10011000
00100010
01110100
00001100
10000101
01011110
11110000
10100100
00100100
00101110
11111111
01111101
00000000
00100010
01110100
00001100
10000101
01011110
11110000
10100100
00100100
00101110
11111111
01111101
00000001
00100010
11100110
11111100
00001000
11100110
11111101
00001000
11100110
11111110
00001000
11100110
11111111
00100010
11101100
11110110
00001000
11101101
11110110
00001000
11101110
11110110
00001000
11101111
11110110
00100010
10101000
01100011
10000110
00000111
10101000
01100100
11100110
00000100
11111101
00000010
00000100
10001011
00010010
00000000
10101111
11111101
10001011
00000111
10001010
00000110
00010010
00000010
00100111
11111011
00100010
00010010
00000001
01110011
00010010
00000101
00110011
01111100
00000000
01111101
00001010
00000010
00001000
01010101
10001101
00000111
01111101
00000101
01111110
00000000
00010010
00000010
00010111
11101111
00100100
00000000
00100010
00010010
00000000
11001001
11111001
00100100
00000111
11111000
01110110
00000001
11101001
00100100
00000010
11111000
00100010
11101110
01100000
00000100
00010100
01100000
00000100
00100010
00011111
10000000
00000001
00001111
00000010
00000100
00100111
11111111
00001001
10000111
00000101
00010010
00000100
10001011
00100100
11100110
11111000
01110100
00000110
11000011
10011000
00100010
11101110
00110000
11100111
00001010
11101111
11110100
00100100
00000001
11111111
11101110
11110100
00110100
00000000
11111110
00100010
10101000
01100101
10000110
00000111
10101000
01100110
10000110
00000101
10101000
01101000
10000110
00000011
01111100
00000000
00100010
00010010
00000100
00100111
01110101
01101010
00000010
00010010
00000000
10010000
00010101
01101010
11100101
01101010
01110000
11110111
00100010
11101101
01010100
00001111
01100000
00001010
11111101
11101111
00100101
11100000
11001110
00110011
11001110
11011101
11111001
11111111
00100010
11101110
00100100
11111100
01000000
00001000
10010000
00001000
00000000
00010010
00000001
00011001
11100000
00100010
01110100
11111111
00100010
11101011
00100100
00000011
11111000
11100110
11111011
00011000
11100110
11111010
00011000
11100110
11111001
00011000
11100110
11111000
00100010
11100100
10010011
11111100
10100011
11100100
10010011
11111101
10100011
11100100
10010011
11111110
10100011
11100100
10010011
11111111
00100010
11100100
10010011
11111000
10100011
11100100
10010011
11111001
10100011
11100100
10010011
11111010
10100011
11100100
10010011
11111011
00100010
00010010
00000001
10111110
10101111
01101000
10101110
01100111
00010010
00000010
00100111
11000011
10010101
00001100
00000010
00000011
01000111
11001001
11000000
11100000
11101001
01100000
00000111
11100100
10010011
11110110
00001000
10100011
11011001
11111001
11010000
11100000
11111001
00100010
11101111
00100100
11000000
11101110
00110100
11111111
01000000
00001000
10010000
00010000
00000000
00010010
00000001
00011001
11101101
11110000
00100010
11101111
01001110
01100000
00001101
10101001
00000111
10101000
00000110
11101001
01100000
00000001
00001000
00000000
11011001
11111101
11011000
11111011
00100010
11101111
01110000
00000010
11111100
00100010
01111100
10000110
11000011
00110011
01000000
00000010
11011100
11111011
00000011
11111101
11100100
11111110
11111111
00100010
10101000
01100111
10000110
00000011
10101111
01101001
10101101
01101000
00010010
00000100
00100111
10101101
01101000
00011101
10101111
01101001
01111011
00000000
00100010
11101111
00100100
11000000
11101110
00110100
11111111
01000000
00001000
10010000
00010000
00000000
00010010
00000001
00011001
11100000
00100010
01110100
11110001
00100010
10101000
01100010
10000110
00000001
11100101
01100010
00100100
00000010
11111000
11100110
11000011
10011001
11111111
10010101
11100000
11111110
00000010
00000001
11101001
00010010
00000000
10101111
11110110
00010010
00000000
11001001
11111000
10101001
00000000
00001001
11101000
00100100
00000011
11111000
11100110
11110111
00000101
00001011
00100010
11111001
10001001
00011111
10000101
11110000
00100000
10001001
00000111
10101101
11110000
00010010
00000100
10001011
11110101
00100001
10001001
00000111
10101101
11110000
00100010
11100101
00010000
10110100
00000001
00001000
10101111
00010001
00010010
00000100
11010001
01110101
00010000
00000000
01111111
00001111
01111110
00000000
00000010
00000010
10011001
00010010
00000110
11111000
00010010
00000011
00011111
01111111
00010011
00010010
00000000
00100111
01111111
11111111
01111110
11111111
00010010
00000010
10011001
10000000
11101111
11110110
00010010
00000000
11001001
11111100
11111001
00100100
00000010
11111000
11100110
11110111
11101100
00100100
00001010
11111000
01110110
00000010
11101100
00100100
00000101
11111000
00100010
00010010
00000001
00001110
11111101
00010010
00000010
10001000
11100100
01111111
11111111
11111110
00010010
00000010
10011001
00010010
00000001
00001110
01111101
00000000
00000010
00000010
10001000
11101001
00100100
00000101
11111011
11101001
00000100
11111010
10000111
00000111
10001010
00000000
10000110
00000101
10001011
00000000
10000110
00000011
00010010
00000100
00100111
11100111
00100010
10101111
01011111
01111101
00000001
00010010
00000011
11101001
10101000
01011111
10000110
00000111
10101000
01100000
10000110
00000101
11100101
01011111
00100100
00000010
11111000
10000110
00000011
00100010
01110101
00010000
00000001
10001111
00010001
01110100
00001000
10101000
00100101
11010011
10011000
01000000
00001001
11100101
00100101
00100100
00100110
11111000
10100110
00000111
00000101
00100101
00100010
00010010
00000010
00000111
00000101
01101000
10101000
01100111
10000110
00000011
10101111
01101001
10101101
01101000
00010010
00000100
00100111
10101101
01101000
00011101
10101111
01101001
01111011
00100010
00100010
11111111
10101000
11110000
10000110
00000101
01111011
00000000
00010010
00000100
00100111
10000111
00000111
10101000
11110000
11100110
00010100
11111101
10001010
00000000
10000110
00000011
00010010
00000100
00100111
11100111
00100010
11101101
11111001
01100000
00000101
00010100
01100000
00001010
10000000
00001110
11101111
00100100
00000010
11111000
01110110
00011111
10000000
00000110
11101111
00100100
00000010
11111000
01110110
00011011
11101111
00100100
00000101
11111000
10100110
00000001
00100010
11100100
11111111
11111110
01111101
00000001
00010010
00000010
10001000
01111110
00000000
01111111
00000001
01111101
11111111
00010010
00000010
10001000
01111111
11111111
01111110
11111111
00010010
00000010
10011001
11100100
11111111
11111110
01111101
00000000
00000010
00000010
10001000
10001111
00000000
01110100
00100000
11010011
10011000
01000000
00011000
01110100
00100000
11010011
10011101
01000000
00010010
00010010
00000001
10110001
11111101
11101110
00110100
00000000
11111100
10001101
10000010
10001100
10000011
11101000
00010010
00000000
11010010
11101011
11110000
00100010
10101111
01100101
10101101
01100111
00010010
00000000
11101110
01110101
01100100
00000010
00010010
00000000
10010000
00010101
01100100
11100101
01100100
01110000
11110111
10101000
01100101
11100110
11110101
01100111
10101000
01100110
10000110
01100100
00010101
01100011
11100101
01100011
00100010
11000011
11101110
01110000
00000100
11101111
00000010
00000100
10101110
01111100
10001110
00110011
11001110
00100000
11100111
00001001
11000011
11001111
00110011
11001111
00110011
00011100
00110000
11100111
11111000
11001110
00010011
11101110
10010010
11100111
11111101
11100100
11001111
11111110
00100010
10001111
00000000
01110100
00100000
11010011
10011000
01000000
00011000
01110100
00100000
11010011
10011101
01000000
00010010
00010010
00000001
10110001
11111011
11101110
00110100
00000000
11111010
10001011
10000010
10001010
10000011
11101000
00010010
00000000
11010010
11100000
00100010
01110100
11111111
00100010
01100000
00000111
10010010
11010101
10000000
00001101
11101111
01110000
00000010
11111100
00100010
10100010
11100111
10010010
11010101
01010000
00000010
11110100
00000100
01111100
10000110
11000011
00110011
01000000
00000010
11011100
11111011
10100010
11010101
00010011
11111101
11100100
11111110
11111111
00100010
10111111
01110100
00001001
01110101
10010000
00000001
01111111
00010011
01111101
00000001
10000000
00011110
10111111
01101011
00001001
01110101
10010000
00000010
01111111
00010011
01111101
00000000
10000000
00010010
10111111
00101001
00001000
01110101
10010000
00000100
01111111
00000001
00000010
00000011
01011101
10111111
01110010
00000111
01111111
00010011
01111101
00000100
00010010
00001000
11101100
00100010
10001111
00000001
11101101
01100000
00000101
00010100
01100000
00010010
10000000
00100100
11100111
00010100
00010010
00000000
10001001
01100000
00010000
11100111
00010100
00010010
00000001
11011010
01000000
00010110
10000000
00010001
11100111
00000100
00010010
00000000
10001001
01110000
00000011
01110100
00000001
00100010
11100111
00000100
00010010
00000001
11011010
01000000
00000011
01110100
11111111
00100010
11100100
00100010
11100100
11111110
11111111
00100010
11101100
01100000
11111010
11001101
10100010
11100111
11010010
11100111
11001101
01000000
11110001
11110100
00100100
01111111
01000000
11101100
00100100
00001000
01000000
00010101
00100100
00001000
01010000
11100100
11001101
10111101
00000000
00000011
11001110
11111111
00100010
11000011
00010011
11001110
00010011
11001110
11011101
11111001
11001110
11111111
00100010
11001101
01111110
00000000
10111101
00000000
00000010
11111111
00100010
11000011
00010011
11011101
11111100
11111111
00100010
10001111
01100101
10101000
01100101
11100110
11110101
01100111
11100101
01100101
00000100
11110101
01100110
11111000
10000110
01100100
11100101
01100101
00100100
00000010
11110101
01101000
01110101
01100011
00000011
00010010
00000001
11111000
01111110
00000011
00010010
00000101
11111010
10101011
01100100
00011011
00010010
00000100
01001000
01110000
11110000
01110101
01100011
00000011
00010010
00000001
11111000
01111110
00000100
00010010
00000101
11111010
10101011
01100100
00001011
00010010
00000100
01001000
01110000
11110000
10101111
01100101
01111101
00000000
00000010
00000000
01100110
10001111
01100010
10101000
01100010
10000110
00000000
11100101
01100010
00100100
00000010
11111001
11100111
11000011
10011000
11111111
10010101
11100000
11111110
00010010
00000001
11101001
11101111
01001110
01110000
00001100
11100101
01100010
00100100
00001010
11111000
10000110
00000001
11101001
01100100
00000010
01100000
00100110
00010010
00000010
11100100
10111111
00000011
00001110
10111110
00000000
00001011
11100101
01100010
00100100
00001010
11111000
10110110
00000000
00000011
01110110
00000001
00100010
00010010
00000010
11100100
10111111
00000011
00001110
10111110
00000000
00001011
11100101
01100010
00100100
00001010
11111000
11111001
10110111
00000001
00000010
01110110
00000000
00100010
10001111
00000001
10001101
11110000
10001011
01101001
10001110
00000010
10101011
00100001
10101101
00100000
10101111
00011111
00010010
00000100
00100111
11101010
01100000
00010010
00010100
01100000
00001000
00100100
11111110
01100000
00010010
00010100
01100000
00010110
00100010
11101001
00000100
00010010
00000011
00001011
10000000
00100011
11101001
00010100
00010010
00000011
00001011
10000000
00011100
10001001
00011111
11100101
11110000
00010100
10000000
00000101
10001001
00011111
11100101
11110000
00000100
11111100
10001100
00100000
10001001
00000111
10001100
00000101
00010010
00000100
10001011
11110101
00100001
10001001
00000111
10001100
00000101
10101011
01101001
00000010
00000100
00100111
00010010
00000100
01101001
01111000
01101110
00010010
00000001
01111111
01110101
01101100
00000000
10010000
00000000
01000101
01110100
00000110
01111000
01110010
00010010
00000010
01110111
01110101
01101101
01110010
10000000
00010111
01111000
01101110
00010010
00000000
01011000
10101000
01101101
11110110
00001000
10001000
01101101
00000101
01101100
01111000
01101110
00010010
00000000
00111111
01111000
01101110
00010010
00000001
01111111
01111000
01101110
00010010
00000000
10110111
01110000
00000111
11100101
01101100
11000011
10010100
00000110
01000000
11011011
01111001
00000000
01111010
00000110
11101001
00100100
00000011
11111111
01110100
01110111
11000011
10011001
11111000
10000110
00000011
01111101
00000100
00010010
00000100
00100111
00001001
11011010
11101101
00100010
00010010
00000010
10101011
01111000
01101101
00010010
00000001
01111111
01110101
01101011
00000000
10010000
00000000
00100010
11100100
10010011
11110101
01110001
01110100
00000001
10010011
11110101
01110010
01110101
01101100
01110001
10000000
00010111
01111000
01101101
00010010
00000000
01011000
10101000
01101100
11110110
00001000
10001000
01101100
00000101
01101011
01111000
01101101
00010010
00000000
00111111
01111000
01101101
00010010
00000001
01111111
01111000
01101101
00010010
00000000
10110111
01110000
00000111
11100101
01101011
11000011
10010100
00000010
01000000
11011011
01111001
00000000
01111010
00000010
11101001
00100100
00001100
11111111
01110100
01110010
11000011
10011001
11111000
10000110
00000011
01111101
00000011
00010010
00000100
00100111
00001001
11011010
11101101
00100010
00010010
00000000
00111001
01110101
00100101
00000000
01110101
00001000
00000000
01110101
00011101
00000000
01110101
00011001
00000011
11100100
11110101
00011011
11110101
00011010
01110101
00010000
00000000
01111111
00011001
00010010
00001010
11001000
01111111
00000011
10001111
00000101
01111011
00111010
00010010
00000100
00100111
01111111
00000100
01111101
00000011
01111011
00111011
00010010
00000100
00100111
01111111
00000101
01111101
00000011
01111011
00111100
00010010
00000100
00100111
01111111
00000110
01111101
00000011
01111011
00111101
00010010
00000100
00100111
01111111
00000111
01111101
00000011
01111011
00111110
00010010
00000100
00100111
11100100
11111111
11111110
00010010
00000110
01001000
01111111
00001010
01111101
00000011
01111011
00011100
00010010
00000100
00100111
10101111
00011001
00010010
00000110
10011111
01110101
00010011
00000011
01110101
00010100
00011100
01110101
00010101
00011100
01110101
00010110
00000001
01111111
00000011
01111101
00011100
10001101
00000011
00000010
00000100
00100111
10001111
00000000
10000110
01101001
10101000
00000111
00001000
10000110
01101000
11101111
00100100
00000010
11110101
01100111
11111000
10000110
00000011
10101111
01101001
10101101
01101000
00010010
00000010
00000111
00010101
01101000
10101000
01100111
10000110
00000011
10101111
01101001
10101101
01101000
00010010
00000100
00100111
11100101
01101000
00000100
11110101
01101000
10101111
01101001
10101101
01101000
01111011
00000000
00010010
00000010
00000111
00010010
00000010
10111110
00010010
00000010
00000111
11100101
01101000
00000100
11110101
01101000
00010010
00000010
10111110
00010010
00000011
10110111
00010010
00000011
10110111
00010010
00000011
10110111
00010010
00000100
00100111
01110101
01100111
00000010
00010010
00000000
10010000
00010101
01100111
11100101
01100111
01110000
11110111
00010010
00000000
00101101
11111000
10000110
00000000
11101000
01100000
00001110
00010010
00000000
00101101
11111000
00010110
00010010
00000000
00101101
11111000
10000110
00000111
00000010
00000110
10011111
00000010
00000000
00100100
11000000
00000111
11000000
11100000
11000000
11110000
11000000
10000010
11000000
10000011
11000000
00000000
11000000
00000001
11000000
00000010
11000000
00000011
11000000
00000100
11000000
00000101
11000000
00000110
11000000
11010000
01110101
11010000
00000000
01110101
10101000
00000000
01111110
00000000
01111111
00000001
00010010
00000010
11010001
11111111
10110100
11110000
00000101
01110101
00001010
00000001
10000000
00101010
10111111
01101011
00000101
11100101
00001010
10110100
00000001
00011010
10111111
01110100
00000101
11100101
00001010
10110100
00000001
00010010
10111111
00101001
00000101
11100101
00001010
10110100
00000001
00001010
10111111
01110010
00001100
10101000
00001010
11101000
01100100
00000001
01100000
00000101
00010010
00000011
10100000
10000000
00000011
01110101
00001010
00000000
01110101
10101000
10000001
11010000
11010000
11010000
00000110
11010000
00000101
11010000
00000100
11010000
00000011
11010000
00000010
11010000
00000001
11010000
00000000
11010000
10000011
11010000
10000010
11010000
11110000
11010000
11100000
11010000
00000111
00110010
10111100
00000000
00010100
10111101
00000000
00000010
11010011
00100010
10111110
00000000
01001111
11000101
11110000
10001101
11110000
11001111
10000100
11001111
10101101
11110000
11000101
11110000
00100010
10111110
00000000
00001000
11101111
11111101
11101110
11111100
11100100
11111111
11111110
00100010
11000011
11101111
10011101
11101110
10011100
01000000
11110001
11000000
11110000
11101000
11000000
11100000
11101001
11000000
11100000
11100100
11111001
01111000
00000001
11000011
11101111
00110011
11111111
11101110
00110011
11111110
11101001
00110011
11111001
11101110
10011101
11110101
11110000
11101001
10011100
10110011
01010000
00000011
11111001
10101110
11110000
11101000
00110011
11111000
01010000
11100101
11101001
11111100
11101110
11111101
11101000
11111111
01111110
00000000
10000000
00110011
11000000
11110000
11101000
11000000
11100000
11101001
11000000
11100000
01111000
00001001
11101111
11111001
01111111
00000000
10001101
11110000
10101100
11110000
11101110
10000100
11111110
11100101
11110000
11000011
01010000
00000110
11001111
00110011
11001111
10011100
10000000
00001000
10011100
01010000
00000001
00101100
11001111
10110011
00110011
11001111
11001001
00100101
11100000
11001001
11111101
00110101
11100000
11011000
11100111
01111100
00000000
11010000
11100000
11111001
11010000
11100000
11111000
11010000
11110000
11000011
00100010
10001111
01011111
10001101
01011110
10101000
01011111
11100110
11110101
01100010
11100101
01011111
00000100
11110101
01100000
11111000
10000110
01100001
10101111
01011111
10101101
01011110
00010010
00000011
11101001
10101000
01011110
11011000
00011101
10101111
01011111
01111101
00000001
00010010
00001111
00001010
10110100
00000001
01110100
00010010
00000011
10001001
01111100
00000000
01111110
00000001
00010010
00000101
11111010
10101101
01100010
00001101
10101111
01011111
10101011
01100001
10000000
01011110
11100101
01011110
01110000
00011101
10101111
01011111
01111101
00000000
00010010
00001111
00001010
10110100
00000001
01010011
00010010
00000011
10001001
01111110
00000000
10001110
00000100
00010010
00000101
11111010
10101101
01100010
00011101
10101111
01011111
10101011
01100001
10000000
00111101
11100101
01011110
10110100
00000011
00001100
10101111
01011111
01111101
00000011
00010010
00001111
00001010
10101111
01011111
00000010
00000101
01101010
11100101
01011110
10110100
00000100
00101010
10101111
01011111
01111101
00000100
00010010
00001111
00001010
10110100
00000001
00100000
10101000
01011111
10000110
00000111
10101000
01100000
10000110
00000101
11100101
01011111
00100100
00000010
11111000
10000110
00000011
01111100
00000000
01111110
00000100
00010010
00000101
11111010
10101011
01100001
00001011
10101111
01011111
10101101
01100010
00010010
00000000
11101110
00100010
11100101
00001111
00100100
00000100
11111000
10110110
00000000
00000010
10000000
00000011
00000010
00001010
00100011
10101001
00100001
11101111
00100100
00000101
11111000
11100110
01100100
00000001
00100100
11111111
10110011
11100100
00110011
00100101
11100000
11111010
10001111
00000000
11100110
00010100
00101010
11110101
01101011
10101000
00000111
00001000
10000110
01101000
10000000
00001010
00010101
01101000
10101111
01101011
10101101
01101000
00010010
00000100
10001011
11111001
10111001
00011000
11110011
01110101
01100111
00000000
01110101
01101001
00011001
11100101
01101011
00010100
11110101
01101010
10000000
00111111
10101111
01101010
10101101
01101000
10101011
01100111
00010010
00000100
00100111
10101111
01101011
10101101
01101000
10101011
01101001
00010010
00000100
00100111
11100101
01101000
00000100
11111001
10101111
01101010
10001001
00000101
00010010
00000100
10001011
11110101
01100111
10101111
01101011
10001001
00000101
00010010
00000100
10001011
11110101
01101001
10101111
01101010
10001001
00000101
01111011
00010111
00010010
00000100
00100111
10101111
01101011
10001001
00000101
01111011
00011000
00010010
00000100
00100111
00000101
01101000
00010010
00000000
10010000
11100101
01101000
10110100
00011011
10111100
11100101
00001111
00000100
11111000
01111110
00100111
01111111
00010000
00010010
00000001
00100100
11100101
00001111
00100100
00000100
11111000
01110110
00000001
00100010
00010010
00000010
01010111
10000000
00000110
00010010
00000010
01000111
00010010
00000010
00110111
00010010
00001010
10000000
00000011
01010100
00000001
00100010
00010010
00000010
01010111
10000000
00000110
00010010
00000010
01000111
00010010
00000010
00110111
00010010
00001010
10000000
00010100
00100011
01010100
00000001
00100010
00010010
00000010
01010111
10000000
00000110
00010010
00000010
01000111
00010010
00000010
00110111
00010010
00001010
10000000
00000100
11000011
00010011
00100010
00010010
00000010
01010111
10000000
00000110
00010010
00000010
01000111
00010010
00000010
00110111
00010010
00001010
10000000
00110011
10110011
11100100
00110011
00100010
00010010
00000010
01010111
10000000
00000110
00010010
00000010
01000111
00010010
00000010
00110111
00010010
00001010
10000000
00000100
01010100
00000001
00100010
10111100
00000000
00001101
11101000
01100000
00001001
11101001
10100010
11100111
01110100
11111111
00110100
00000000
00110100
00000000
00100010
11101000
01110000
00001001
11101101
10100010
11100111
10010101
11100000
10110011
00110100
00000000
00100010
11101001
01010100
10000000
00101101
00110000
11100111
00000100
11101101
00100011
10000000
00011010
11101100
11000011
10011000
01100000
00000110
11101101
00100011
00110100
00000000
10000000
00001111
11101111
10011011
11001110
10011010
01001110
11001101
10011001
01001101
01110000
00000001
00100010
11101001
00100011
00110100
00000000
01010100
00000001
00100011
11110100
00100100
00000010
00100010
10001111
00001111
01110101
00001100
00000000
01110101
00011111
00000011
01110101
00100000
00011100
01110101
00100001
00000000
01110101
00001011
00000000
11100100
11110101
01101100
11110101
01101011
01111010
00100000
11100100
11110101
01101110
01111001
00100000
10101111
01101110
10101101
01101100
01111011
00000000
00010010
00000100
00100111
00000101
01101110
11100101
01101110
11011001
11110001
00000101
01101100
11100101
01101100
01110000
00000010
00000101
01101011
11011010
11100010
11100100
11110101
01101100
11110101
01101011
01111001
00100000
10101111
01101100
01111011
00100010
01111101
00011101
00010010
00000100
00100111
10101111
01101100
01111011
00100010
01111101
00011110
00010010
00000100
00100111
10101111
01101100
01111011
00100010
01111101
00011111
00010010
00000100
00100111
00000101
01101100
11100101
01101100
01110000
00000010
00000101
01101011
11011001
11011011
01110101
01101011
00000000
00010010
00000000
01011111
11111000
01110100
00100000
11010011
10011000
01000000
00111111
01111001
00000010
01111000
00000000
11101001
00100101
01101011
11111011
11100100
00111000
00010010
00000000
10100111
10110100
00101011
00010111
00010010
00000001
10111110
00010010
00000000
01011111
00010010
00000011
01000111
00010010
00000000
11011011
11101100
00100100
00000011
11111000
10101111
01101011
01111110
00000000
00010010
00000010
11110111
00010010
00000000
01011111
11111000
10101111
01101011
01111110
00000000
00010010
00000001
10010111
10001000
00000111
00010010
00000100
00100111
11100101
01101011
00100100
00000011
11110101
01101011
10000000
10110111
00100010
10001111
01100001
01110101
01011110
00000000
01110101
01011111
00000100
01110100
00001100
00010010
00000000
10011111
00100100
00000111
11111010
11111000
10110110
00000001
00000010
10000000
00000011
00000010
00001100
01110011
11101001
00100100
00001011
11111000
10110110
00010101
00000010
10000000
00000011
00000010
00001100
01110011
01110110
00000000
01110100
00001100
10000101
01011110
11110000
10100100
00100100
00101110
11110101
01100000
11111111
00010010
00000101
10101100
11100101
01100000
00100100
00001010
11111000
11100110
01100000
00000110
00010100
01100000
00100000
00000010
00001100
01101110
10101111
01100000
01111101
00000000
00010010
00000100
11111111
01100100
00000001
01100000
01101001
00010010
00000001
01011011
00010010
00000100
11111111
01100100
11111111
01100000
01010010
00010010
00000001
01100111
00010010
00000000
10000010
10000000
00001010
10101111
01100000
01111101
00000001
00010010
00000100
11111111
10110100
00000001
00110111
01110100
00001100
00010010
00000000
10011111
11111000
00000110
00100100
00000100
11111000
10110110
00000001
00001011
00010010
00000011
01110011
00010100
11111111
10001010
00000000
10000110
00000101
10000000
01110000
10110110
00000010
01110010
11101001
00100100
00000101
11111010
11111000
01110110
00101110
10101000
00000010
00001000
01110110
00101111
00010010
00000001
00111010
01111011
00101111
00010010
00000100
00100111
11100111
00010100
00010010
00000011
11001111
00010100
10000000
01001011
00010010
00000001
01100111
00010010
00000100
11111111
10110100
11111111
00000111
10101111
01100001
00010010
00000111
01101010
10000000
01000110
00010010
00000001
01011011
00010010
00000000
10000010
01110100
00001100
00010010
00000000
10011111
11111000
00010110
00100100
00000100
11111000
10110110
00000001
00001011
00010010
00000011
01110011
00000100
11111111
10001010
00000000
10000110
00000101
10000000
00100011
10110110
00000010
00100101
11101001
00100100
00000101
11111010
11111000
01110110
00101100
10101000
00000010
00001000
01110110
00101101
00010010
00000001
00111010
01111011
00101101
00010010
00000100
00100111
11100111
00000100
00010010
00000011
11001111
00000100
11111111
10101000
11110000
11100110
00010100
11111101
01111011
00000000
00010010
00000100
00100111
00010010
00000000
10010000
10000000
00010010
10001010
00000000
10110110
00000001
00001101
11101001
00100100
00001011
11111000
10000110
00000001
01110100
00010101
11010011
10011001
01000000
00000001
00000110
00000101
01011110
00010101
01011111
11100101
01011111
01100000
00000011
00000010
00001011
01111111
00100010
00100010
10010000
00010000
01111100
11100100
10010011
01100000
11111000
11111111
10100011
11100100
10010011
10100011
11111110
11100100
10010011
10100011
11111000
11100100
10010011
10100011
11111001
11100100
10010011
10100011
11111010
11100100
10010011
10100011
11111011
11100100
10010011
10100011
11111100
11100100
10010011
11111101
10100011
11101110
01010100
00000001
01110000
01000110
11101111
01100100
00000001
01100000
00110011
11101111
01100100
00000011
01100000
00101110
10111111
00001001
00000010
10000000
00101001
10111111
00000100
00000111
10101110
10000011
10101111
10000010
00000010
00001101
01111000
10111111
00000110
00000010
10000000
00100001
10101110
10000011
10101111
10000010
10001000
10000011
10001001
10000010
11100100
11110000
10100011
00011101
10111101
11111111
00000001
00011100
11101100
01001101
01110000
11110100
10001110
10000011
10001111
10000010
10000000
10100001
11100100
11110111
00001001
11011101
11111011
10000000
10011010
11100100
11110011
00001001
11011101
11111011
10000000
10010011
11101111
01100100
00000001
01100000
01000101
11101111
01100100
00000011
01100000
01000000
10111111
00001001
00000010
10000000
00111011
10111111
00000100
00001010
10101110
10000011
10101111
10000010
10001010
10000011
10001011
10000010
10000000
01011010
10111111
00000110
00000010
10000000
00111111
10101110
10000011
10101111
10000010
10001010
10000011
10001011
10000010
11100100
10010011
10100011
10101010
10000011
10101011
10000010
10001000
10000011
10001001
10000010
11110000
10100011
10101000
10000011
10101001
10000010
00011101
10111101
11111111
00000001
00011100
11101100
01001101
01110000
11100010
10001110
10000011
10001111
10000010
00000010
00001100
10010101
10101110
10000011
10101111
10000010
10001010
10000011
10001011
10000010
11100100
10010011
11110111
00001001
10100011
11011101
11111001
10001110
10000011
10001111
10000010
00000010
00001100
10010101
10101110
10000011
10101111
10000010
10001010
10000011
10001011
10000010
11100100
10010011
11110011
00001001
10100011
11011101
11111001
10001110
10000011
10001111
10000010
00000010
00001100
10010101
11101001
01110101
11110000
00001000
10000100
00100100
00100000
11111000
11100110
11111100
11100101
11110000
01100000
00000101
11001100
00000011
11011100
11111101
11001100
10111101
00000000
00010100
11101001
01010100
00000111
01100000
00000110
11101100
00000011
11111100
00001001
10000000
11110101
11101100
11110110
10001110
10000011
10001111
10000010
00000010
00001100
10010101
11101011
01001010
01100000
00000011
11100100
10010011
10100011
11000011
01100000
00000001
11010011
11101100
00010011
11111100
00001001
00011101
11101001
01010100
00000111
01110000
11010100
11101100
11110110
10000000
10111101
11100101
00001100
00101111
11110101
00001100
01110100
10010000
10101000
00001100
11010011
10011000
01010000
00000011
00000010
00001111
00001001
01111000
00101110
01111010
00000100
11101000
00100100
00000111
11111001
10110111
00000001
00000001
00010110
11101000
00100100
00001100
11111000
11011010
11110010
01110101
01101000
00000101
01110101
01100111
00000000
01111001
00011000
11100100
11110101
01101010
11110101
01101001
01110101
11110000
00100000
11100101
01101010
10110100
00011111
00001100
11100101
01101001
01110000
00001000
10101101
01101000
01111111
00011111
01111011
00000000
10000000
00110001
11100101
01101010
00000100
11111100
10101101
01101000
10001100
00000111
00010010
00000100
10001011
01100100
00011010
01100000
00100101
10101101
01101000
10001100
00000111
00010010
00000100
10001011
01100100
00011011
01100000
00011010
10101101
01101000
10001100
00000111
00010010
00000100
10001011
01100100
00011100
01100000
00001111
10101101
01101000
10001100
00000111
00010010
00000100
10001011
11111011
10101111
01101010
10101101
01101000
00010010
00000100
00100111
00000101
01101010
11100101
01101010
01110000
00000010
00000101
01101001
00010101
11110000
11100101
11110000
01110000
10101101
00000101
01101000
11100101
01101000
01110000
00000010
00000101
01100111
11011001
10011011
01110101
01101000
00101110
01110101
01100111
00000100
11100101
01101000
00100100
00000010
11111000
00010110
10101000
01101000
10000110
00000000
11101000
01110000
00001111
11100101
01101000
00100100
00000111
11111000
10110110
00000001
00000111
10101111
01101000
01111101
00000000
00010010
00000000
01110100
11100101
01101000
00100100
00001100
11110101
01101000
00010101
01100111
11100101
01100111
01110000
11011000
11100100
11110101
01101000
11110101
01100111
01110101
01101001
11110010
00010010
00000000
11111000
01111011
00100000
00010010
00000001
00000011
11000011
10011011
11101000
10011010
00110000
11010010
00000010
10110010
11100111
00110000
11100111
01110101
00010010
00000000
11111000
01111011
00011111
00010010
00000001
00000011
10110101
00000011
01010110
11101000
10110101
00000010
01010010
11100101
01101000
00100100
00000010
11111011
11100100
00110101
01100111
00010010
00000000
10100111
00100100
11010101
01100000
00000110
00100100
11111110
01100000
00001010
10000000
00100101
00010010
00000010
01100111
00010010
00000000
11011011
10000000
00010000
00010010
00000010
01100111
01110110
00101100
00001000
01110110
00101101
00010010
00000000
11001001
00100100
00000100
11111000
01110110
00000010
00010010
00000000
11001001
00100100
00000011
11111000
10101111
01101000
10101110
01100111
00010010
00000010
11110111
10101000
00001100
10101111
01101000
10101110
01100111
00010010
00000010
00100111
11000011
10011000
11111000
10101111
01101000
10101110
01100111
00010010
00000001
10010111
10101111
00000000
00010010
00000100
00100111
11100101
01101000
00100100
00000011
11110101
01101000
11100100
00110101
01100111
11110101
01100111
00010101
01101001
11100101
01101001
01100000
00000011
00000010
00001110
10000000
00100010
10001111
01100011
10001101
00000000
11011000
01100011
10101000
01100011
11100110
11111111
11111001
01111000
00000000
00001001
10111001
00000000
00000001
00001000
11101001
00100100
11100010
11101000
01100100
10000000
00110100
01111111
01000000
01000100
11100101
01100011
00000100
11110101
01100100
00001111
00010010
00000001
01010000
01000000
00100010
10101000
01100011
10000110
00000111
00001111
00010010
00000000
10010111
01100000
01100011
00010100
01100000
01100000
00100100
11111000
01110000
00001110
00010010
00000000
01010001
00000100
11111111
10101000
01100100
10000110
00000101
01111011
00000000
00010010
00000100
00100111
01110100
00000001
00100010
10101000
01100011
11100110
00000100
00010010
00000000
11000000
01100000
01011110
00010100
01100000
01011011
00010100
01100000
01011000
00010100
01100000
01010101
00010100
01100000
01010010
10000000
00000111
10101101
01100011
01111111
00000001
00010010
00001101
10111011
11100100
00100010
11101101
01110000
01001011
10101000
01100011
11100110
11111111
01100000
11110101
11100101
01100011
00000100
11110101
01100100
00011111
00010010
00000001
01010000
01000000
00011110
10101000
01100011
10000110
00000111
00011111
00010010
00000000
10010111
01100000
00001101
00010100
01100000
00001010
00100100
11111000
01110000
10111000
00010010
00000000
01010001
00010100
10000000
10101000
10101111
01100011
00010010
00001001
10000111
10000000
10101011
10101000
01100011
11100110
00010100
00010010
00000000
11000000
01100000
00001100
00010100
01100000
00001001
00010100
01100000
00000110
00010100
01100000
00000011
00010100
01110000
10110111
10101111
01100011
00010010
00000111
01101010
10000000
10110000
10111101
00000011
00110001
11100101
01100011
00000100
11111001
10101000
01100011
10000110
00000111
11100111
00100100
11111101
11111101
00010010
00000100
10001011
10110100
00101001
00000010
10000000
00000011
00000010
00001111
01010000
10101000
01100011
10000110
00000111
11100111
00100100
11111101
11111101
01111011
00101010
00010010
00000100
00100111
10101000
01100011
10000110
00000111
11100111
00100100
11111100
11111101
01111011
00100001
00000010
00001111
01001101
10111101
00000100
00000010
10000000
00000011
00000010
00001111
01110001
11100101
01100011
00000100
11110101
01100100
00010010
00000001
10001011
00010010
00000001
10001011
00100100
11011111
01100000
01100001
00100100
11110110
01100000
00000011
00000010
00001111
01010000
11100101
00001111
00000100
11111000
01111110
00000011
01111111
11101000
00010010
00000001
00100100
01111010
00000000
10101000
01100011
10000110
00000001
10000000
00111110
01110100
00001100
10001010
11110000
10100100
00100100
00101110
11111111
11111000
11100110
10110101
00000001
00110000
10101000
00000111
00001000
10000110
00000101
01111100
00000000
10101000
01100100
10000110
01100110
01110101
01100101
00000000
00000101
01100110
11100101
01100110
01110000
00000010
00000101
01100101
11101101
10110101
01100110
00000010
10000000
00000011
00000010
00010000
01100011
11101100
10110101
01100101
00000010
10000000
00000011
00000010
00010000
01100011
01111101
00000000
00010010
00000000
01110100
00000010
00001111
01010000
00001010
11101010
11000011
10010101
00001011
01000000
10111100
00000010
00001111
01010000
00010010
00000001
01000101
10101000
01100011
10000110
00000111
10101000
01100100
11100110
00000100
11111101
00000010
00001111
01001011
00000001
00000010
00000000
00001000
00000000
00000000
00000000
01010110
00000101
00000010
00000000
00000000
00000000
00000000
00000100
00000000
00000101
00000010
00001000
00000000
00000000
00000000
00000100
00000000
00000101
00000010
00010000
00000000
00000000
00000000
00000000
00000011
00000101
00000010
00010000
00000100
00000000
00000000
00000000
00000001
00000000
