00001000
00010011
00010000
00001000
00010100
00010011
00001001
00010011
00010001
00001001
00010100
00010100
00001010
00010011
00010010
00001010
00010100
00010101
00001011
00011100
00000001
00001100
00011100
00000010
00001101
00011100
00000010
00001110
00011100
00000010
00001111
00011100
00000011
00010000
00011001
00101001
00010000
00011100
00000101
00010001
00011011
00000100
00010001
00011100
00000110
00010010
00011100
00000111
00010100
00011001
00100011
00010101
00011001
00100011
00010110
00011001
00100011
00010110
00011100
00101011
00010111
00011001
00101001
00011000
00011001
00100011
00011100
00011011
00100100
00011100
00011100
00100110
00011101
00011011
00100101
00011101
00011100
00100111
00011111
00010011
00010000
00011111
00010100
00010011
00100000
00010011
00010001
00100000
00010100
00010100
00100001
00010011
00010001
00100001
00010100
00010100
00100010
00010011
00010010
00100010
00010100
00010101
00100110
00011010
00100100
00100110
00011011
00100110
00100110
00011100
00100110
00100111
00011010
00100101
00100111
00011011
00100111
00100111
00011100
00100111
00101001
00011100
00101011
00101101
00011011
00100100
00101101
00011100
00100110
00101110
00011011
00100101
00101110
00011100
00100111
00110011
00011101
00000000
00110011
00011110
00000000
00110011
00011111
00000000
00110100
00011101
00000000
00110100
00011110
00000000
00110100
00011111
00000000
00110111
00011100
00000001
00111000
00011100
00000010
00111001
00011100
00000010
00111010
00011100
00000010
00111011
00011100
00000011
01000000
00011100
00101011
01000100
00011001
00101001
01000101
00011011
00101100
01000101
00011100
00101101
01001000
00011001
00101001
01001011
00011001
00101001
01010101
00011100
00101000
01010110
00011011
00101000
01010110
00011100
00101000
01010111
00011010
00101000
01010111
00011011
00101000
01010111
00011100
00101000
01011000
00011001
00101000
01011000
00011010
00101000
01011000
00011011
00101000
01011000
00011100
00101000
01011001
00011100
00000010
01011010
00011100
00000010
01011011
00011001
00101000
01011011
00011010
00101000
01011011
00011011
00101000
01011011
00011100
00101000
01011100
00011010
00101000
01011100
00011011
00101000
01011100
00011100
00101000
01011101
00011011
00101000
01011101
00011100
00101000
01011110
00011100
00101000
01011111
00011100
00000101
01100000
00011011
00000101
01100000
00011100
00000110
01100001
00011010
00000100
01100001
00011011
00000110
01100001
00011100
00000110
01100010
00011011
00000111
01100010
00011100
00000110
01100011
00011100
00101000
01100100
00011011
00101000
01100100
00011100
00101000
01100101
00011010
00101000
01100101
00011011
00101000
01100101
00011100
00101000
01100110
00011001
00101000
01100110
00011010
00101000
01100110
00011011
00101000
01100110
00011100
00101000
01100111
00011001
00101000
01100111
00011010
00101000
01100111
00011011
00101000
01100111
00011100
00101000
01101000
00011101
00000000
01101000
00011110
00000000
01101000
00011111
00000000
01101001
00011101
00000000
01101001
00011110
00000000
01101001
00011111
00000000
01101010
00011001
00101000
01101010
00011010
00101000
01101010
00011011
00101000
01101010
00011100
00101000
01101011
00011001
00101000
01101011
00011010
00101000
01101011
00011011
00101000
01101011
00011100
00101000
01101100
00011010
00101000
01101100
00011011
00101000
01101100
00011100
00101000
01101101
00011011
00101000
01101101
00011100
00101000
01101110
00011100
00101000
01110011
00001110
00010000
01110011
00001111
00010011
01110011
00011011
00100100
01110011
00011100
00100110
01110100
00001110
00010001
01110100
00001111
00010100
01110100
00011011
00100101
01110100
00011100
00100111
01110101
00001110
00010010
01110101
00001111
00010101
01111001
00011000
00100011
01111010
00011000
00100011
01111011
00011000
00101001
01111100
00011000
00100011
01111101
00001111
00010000
01111101
00010000
00010011
00000000
00000000
00000000
00000000
00000000
00000000
01111110
00001111
00010001
01111110
00010000
00010100
00000000
00000000
00000000
00000000
00000000
00000000
01111111
00001111
00010001
01111111
00010000
00010100
10000000
00001111
00010010
10000000
00010000
00010101
10000101
00011011
00100100
10000101
00011100
00100110
10000110
00011011
00100101
10000110
00011100
00100111
10000111
00011100
00101000
10001000
00011011
00101000
10001000
00011100
00101000
10001001
00011010
00101000
10001001
00011011
00101000
10001001
00011100
00101000
10001010
00011001
00101000
10001010
00011010
00101000
10001010
00011011
00101000
10001010
00011100
00101000
10001011
00011000
00101000
10001011
00011001
00101000
10001011
00011010
00101000
10001011
00011011
00101000
10001011
00011100
00101000
10001100
00010111
00101000
10001100
00011000
00101000
10001100
00011001
00101000
10001100
00011010
00101000
10001100
00011011
00101000
10001100
00011100
00101000
10001101
00010110
00101000
10001101
00010111
00101000
10001101
00011000
00101000
10001101
00011001
00101000
10001101
00011010
00101000
10001101
00011011
00101000
10001101
00011100
00101000
10001110
00010101
00101000
10001110
00010110
00101000
10001110
00010111
00101000
10001110
00011000
00101000
10001110
00011001
00101000
10001110
00011010
00101000
10001110
00011011
00101000
10001110
00011100
00101000
10001111
00010101
00101000
10001111
00010110
00101000
10001111
00010111
00101000
10001111
00011000
00101000
10001111
00011001
00101000
10001111
00011010
00101000
10001111
00011011
00101000
10001111
00011100
00101000
10010110
00010100
00010111
10010111
00010011
00010110
10010111
00010100
00011000
10010111
00010101
00011001
10010111
00010110
00011001
10010111
00010111
00011001
10010111
00011000
00011001
10010111
00011001
00011001
10010111
00011010
00011001
10010111
00011011
00011001
10010111
00011100
00101000
10011001
00010011
00010000
10011001
00010100
00010011
10011010
00010011
00010010
10011010
00010100
00010101
10011011
00011010
00001001
10011011
00011011
00001011
10011011
00011100
00001011
10011100
00011000
00001001
10011100
00011001
00001010
10011100
00011010
00001110
10011100
00011011
00001011
10011100
00011100
00001011
10011101
00011000
00001001
10011101
00011001
00001011
10011101
00011010
00001110
10011101
00011011
00001100
10011101
00011100
00001101
10011110
00011000
00001001
10011110
00011001
00001111
10011110
00011010
00001110
10011110
00011011
00001011
10011110
00011100
00001011
10011111
00011010
00001001
10011111
00011011
00001011
10011111
00011100
00001011
10100000
00011100
00000011
10100001
00011100
00000101
10100010
00011011
00000100
10100010
00011100
00000110
10100011
00011100
00000111
