00000010
00000000
00000011
01110101
11010000
00000000
01110101
10011111
00000000
01110101
10001111
00010000
01110101
10000001
00001000
00010010
00000000
00101010
11100100
11111111
11111110
00010010
00000000
00011110
00010010
00000000
00011100
00110010
10000000
11111110
00100010
01111000
11111111
01111001
00000000
00000000
11011000
11111101
11011001
11111011
00100010
00100010
10010000
00000001
01010011
11100100
10010011
01100000
11111000
11111111
10100011
11100100
10010011
10100011
11111110
11100100
10010011
10100011
11111000
11100100
10010011
10100011
11111001
11100100
10010011
10100011
11111010
11100100
10010011
10100011
11111011
11100100
10010011
10100011
11111100
11100100
10010011
11111101
10100011
11101110
01010100
00000001
01110000
01000110
11101111
01100100
00000001
01100000
00110011
11101111
01100100
00000011
01100000
00101110
10111111
00001001
00000010
10000000
00101001
10111111
00000100
00000111
10101110
10000011
10101111
10000010
00000010
00000001
00010000
10111111
00000110
00000010
10000000
00100001
10101110
10000011
10101111
10000010
10001000
10000011
10001001
10000010
11100100
11110000
10100011
00011101
10111101
11111111
00000001
00011100
11101100
01001101
01110000
11110100
10001110
10000011
10001111
10000010
10000000
10100001
11100100
11110111
00001001
11011101
11111011
10000000
10011010
11100100
11110011
00001001
11011101
11111011
10000000
10010011
11101111
01100100
00000001
01100000
01000101
11101111
01100100
00000011
01100000
01000000
10111111
00001001
00000010
10000000
00111011
10111111
00000100
00001010
10101110
10000011
10101111
10000010
10001010
10000011
10001011
10000010
10000000
01011010
10111111
00000110
00000010
10000000
00111111
10101110
10000011
10101111
10000010
10001010
10000011
10001011
10000010
11100100
10010011
10100011
10101010
10000011
10101011
10000010
10001000
10000011
10001001
10000010
11110000
10100011
10101000
10000011
10101001
10000010
00011101
10111101
11111111
00000001
00011100
11101100
01001101
01110000
11100010
10001110
10000011
10001111
10000010
00000010
00000000
00101101
10101110
10000011
10101111
10000010
10001010
10000011
10001011
10000010
11100100
10010011
11110111
00001001
10100011
11011101
11111001
10001110
10000011
10001111
10000010
00000010
00000000
00101101
10101110
10000011
10101111
10000010
10001010
10000011
10001011
10000010
11100100
10010011
11110011
00001001
10100011
11011101
11111001
10001110
10000011
10001111
10000010
00000010
00000000
00101101
11101001
01110101
11110000
00001000
10000100
00100100
00100000
11111000
11100110
11111100
11100101
11110000
01100000
00000101
11001100
00000011
11011100
11111101
11001100
10111101
00000000
00010100
11101001
01010100
00000111
01100000
00000110
11101100
00000011
11111100
00001001
10000000
11110101
11101100
11110110
10001110
10000011
10001111
10000010
00000010
00000000
00101101
11101011
01001010
01100000
00000011
11100100
10010011
10100011
11000011
01100000
00000001
11010011
11101100
00010011
11111100
00001001
00011101
11101001
01010100
00000111
01110000
11010100
11101100
11110110
10000000
10111101
00000000
